…
## creating the dataframe
question_2 = tibble(
  x = rnorm(1000),
  y = rnorm(1000),
  xyvec_logic = x + y > 0,
  xyvec_num = as.numeric(xyvec_logic),
  xyvec_fac = as.factor(xyvec_logic)
)

## viewing the dataframe
question_2
```

    ## # A tibble: 1,000 x 5
    ##         x       y xyvec_logic xyvec_num xyvec_fac
    ##     <dbl>   <dbl> <lgl>           <dbl> <fct>    
    ##  1  1.34   0.0199 TRUE                1 TRUE     
    ##  2 -0.350  0.104  FALSE               0 FALSE    
    ##  3  2.15   0.222  TRUE                1 TRUE     
    ##  4 -1.65  -1.12   FALSE               0 FALSE    
    ##  5 -0.584 -0.348  FALSE               0 FALSE    
    ##  6  1.18  -0.281  TRUE                1 TRUE     
    ##  7 -0.288  0.778  TRUE                1 TRUE     
    ##  8 -0.991  0.841  FALSE               0 FALSE    
    ##  9 -2.07  -0.202  FALSE               0 FALSE    
    ## 10  0.612 -0.518  TRUE                1 TRUE     
    ## # ... with 990 more rows
…
